{"paging":{"page":1,"total":7415,"page_size":20,"pages":371},"loans":[{"id":810933,"name":"Charles","description":{"languages":["en"]},"status":"fundraising","funded_amount":0,"basket_amount":0,"image":{"id":1751474,"template_id":1},"activity":"Farming","sector":"Agriculture","theme":"Rural Exclusion","use":"to buy farm inputs such as fertilizer and seeds to increase production.","location":{"country_code":"KE","country":"Kenya","town":"karatina","geo":{"level":"country","pairs":"1 38","type":"point"}},"partner_id":138,"posted_date":"2014-12-09T16:10:03Z","planned_expiration_date":"2015-01-23T16:10:03Z","loan_amount":675,"borrower_count":1,"lender_count":0,"bonus_credit_eligibility":true,"tags":[]},{"id":810948,"name":"Benjamin","description":{"languages":["en"]},"status":"fundraising","funded_amount":0,"basket_amount":0,"image":{"id":1748155,"template_id":1},"activity":"Services","sector":"Services","theme":"Mobile Technology","use":"to open up another outlet to reach out to distant communities and increase his daily float","location":{"country_code":"ZM","country":"Zambia","town":"Luanshya","geo":{"level":"country","pairs":"-15 30","type":"point"}},"partner_id":210,"posted_date":"2014-12-09T16:10:03Z","planned_expiration_date":"2015-01-23T16:10:03Z","loan_amount":475,"borrower_count":1,"lender_count":0,"bonus_credit_eligibility":false,"tags":[]},{"id":806347,"name":"Nuevo Amanecer De Putucusi Group","description":{"languages":["es","en"]},"status":"fundraising","funded_amount":0,"basket_amount":0,"image":{"id":1744989,"template_id":1},"activity":"Farming","sector":"Agriculture","theme":"Underfunded Areas","use":"to buy seeds and compost.","location":{"country_code":"PE","country":"Peru","town":"La Convencion\/Quellouno\/Cusco","geo":{"level":"country","pairs":"-10 -76","type":"point"}},"partner_id":119,"posted_date":"2014-12-09T16:10:02Z","planned_expiration_date":"2015-01-23T16:10:02Z","loan_amount":6175,"borrower_count":11,"lender_count":0,"bonus_credit_eligibility":true,"tags":[]},{"id":806401,"name":"Reina Isabel","description":{"languages":["es","en"]},"status":"fundraising","funded_amount":0,"basket_amount":0,"image":{"id":1733098,"template_id":1},"activity":"Personal Housing Expenses","sector":"Housing","use":"to buy cement, sand, gravel, bricks, and rebar, and to pay for labor to build a room on her house","location":{"country_code":"SV","country":"El Salvador","geo":{"level":"country","pairs":"13.833333 -88.916667","type":"point"}},"partner_id":81,"posted_date":"2014-12-09T16:10:02Z","planned_expiration_date":"2015-01-23T16:10:02Z","loan_amount":400,"borrower_count":1,"lender_count":0,"bonus_credit_eligibility":true,"tags":[]},{"id":811554,"name":"Gulnora","description":{"languages":["ru","en"]},"status":"fundraising","funded_amount":0,"basket_amount":0,"image":{"id":1752370,"template_id":1},"activity":"Embroidery","sector":"Arts","theme":"Start-Up","use":"to purchase a new embroidery machine","location":{"country_code":"TJ","country":"Tajikistan","town":"Dushanbe","geo":{"level":"town","pairs":"38.56 68.773889","type":"point"}},"partner_id":63,"posted_date":"2014-12-09T16:10:02Z","planned_expiration_date":"2015-01-23T16:10:01Z","loan_amount":1000,"borrower_count":1,"lender_count":0,"bonus_credit_eligibility":true,"tags":[]},{"id":810947,"name":"Caesar","description":{"languages":["en"]},"status":"fundraising","funded_amount":0,"basket_amount":0,"image":{"id":1748854,"template_id":1},"activity":"Services","sector":"Services","theme":"Mobile Technology","use":"to buy a Zoona-branded trading booth and provide essential funds to serve his customers","location":{"country_code":"ZM","country":"Zambia","town":"Lusaka","geo":{"level":"country","pairs":"-15 30","type":"point"}},"partner_id":210,"posted_date":"2014-12-09T16:00:09Z","planned_expiration_date":"2015-01-23T16:00:08Z","loan_amount":1575,"borrower_count":1,"lender_count":0,"bonus_credit_eligibility":false,"tags":[]},{"id":810946,"name":"Ganizani","description":{"languages":["en"]},"status":"fundraising","funded_amount":0,"basket_amount":0,"image":{"id":1615499,"template_id":1},"activity":"Services","sector":"Services","theme":"Mobile Technology","use":"to grow his mobile money business to service more customers by providing a safe way to send and receive money through his shops","location":{"country_code":"ZM","country":"Zambia","town":"Kabwe","geo":{"level":"country","pairs":"-15 30","type":"point"}},"partner_id":210,"posted_date":"2014-12-09T16:00:03Z","planned_expiration_date":"2015-01-23T16:00:03Z","loan_amount":400,"borrower_count":1,"lender_count":0,"bonus_credit_eligibility":false,"tags":[]},{"id":810932,"name":"Felomina","description":{"languages":["en"]},"status":"fundraising","funded_amount":0,"basket_amount":0,"image":{"id":1751424,"template_id":1},"activity":"Fish Selling","sector":"Food","theme":"Disaster recovery","use":"to buy a larger variety of fish to sell.","location":{"country_code":"PH","country":"Philippines","town":"Ormoc City, Leyte","geo":{"level":"country","pairs":"13 122","type":"point"}},"partner_id":125,"posted_date":"2014-12-09T16:00:02Z","planned_expiration_date":"2015-01-23T16:00:02Z","loan_amount":275,"borrower_count":1,"lender_count":0,"bonus_credit_eligibility":true,"tags":[]},{"id":810954,"name":"Mwangi","description":{"languages":["en"]},"status":"fundraising","funded_amount":0,"basket_amount":0,"image":{"id":1751498,"template_id":1},"activity":"Farming","sector":"Agriculture","theme":"Rural Exclusion","use":"to buy farm inputs like seeds, animal feed, and fertilizer","location":{"country_code":"KE","country":"Kenya","town":"karatina","geo":{"level":"country","pairs":"1 38","type":"point"}},"partner_id":138,"posted_date":"2014-12-09T16:00:02Z","planned_expiration_date":"2015-01-23T16:00:02Z","loan_amount":575,"borrower_count":1,"lender_count":0,"bonus_credit_eligibility":true,"tags":[]},{"id":810955,"name":"Peris","description":{"languages":["en"]},"status":"fundraising","funded_amount":0,"basket_amount":0,"image":{"id":1751499,"template_id":1},"activity":"Farming","sector":"Agriculture","theme":"Rural Exclusion","use":"to buy farm inputs","location":{"country_code":"KE","country":"Kenya","town":"karatina","geo":{"level":"country","pairs":"1 38","type":"point"}},"partner_id":138,"posted_date":"2014-12-09T16:00:02Z","planned_expiration_date":"2015-01-23T16:00:02Z","loan_amount":225,"borrower_count":1,"lender_count":0,"bonus_credit_eligibility":true,"tags":[]},{"id":810956,"name":"Gladys","description":{"languages":["en"]},"status":"fundraising","funded_amount":0,"basket_amount":0,"image":{"id":1751500,"template_id":1},"activity":"Cereals","sector":"Food","use":"to buy more stock of cereals","location":{"country_code":"KE","country":"Kenya","town":"karatina","geo":{"level":"country","pairs":"1 38","type":"point"}},"partner_id":138,"posted_date":"2014-12-09T16:00:02Z","planned_expiration_date":"2015-01-23T16:00:02Z","loan_amount":225,"borrower_count":1,"lender_count":0,"bonus_credit_eligibility":true,"tags":[]},{"id":810957,"name":"Susan","description":{"languages":["en"]},"status":"fundraising","funded_amount":0,"basket_amount":0,"image":{"id":1751502,"template_id":1},"activity":"Retail","sector":"Retail","use":"to buy more stock of curtains ","location":{"country_code":"KE","country":"Kenya","town":"Kisii","geo":{"level":"town","pairs":"-0.683333 34.766667","type":"point"}},"partner_id":138,"posted_date":"2014-12-09T16:00:02Z","planned_expiration_date":"2015-01-23T16:00:02Z","loan_amount":125,"borrower_count":1,"lender_count":0,"bonus_credit_eligibility":true,"tags":[]},{"id":810929,"name":"Gzim","description":{"languages":["en"]},"status":"fundraising","funded_amount":0,"basket_amount":0,"image":{"id":1751463,"template_id":1},"activity":"Taxi","sector":"Transportation","use":"To repair his vehicle and keep it in good, safe condition for his clients","location":{"country_code":"XK","country":"Kosovo","geo":{"level":"country","pairs":"42.583333 21","type":"point"}},"partner_id":240,"posted_date":"2014-12-09T15:50:53Z","planned_expiration_date":"2015-01-23T15:50:53Z","loan_amount":1875,"borrower_count":1,"lender_count":0,"bonus_credit_eligibility":false,"tags":[]},{"id":810941,"name":"Kombelwa","description":{"languages":["en"]},"status":"fundraising","funded_amount":25,"basket_amount":0,"image":{"id":1447636,"template_id":1},"activity":"Services","sector":"Services","theme":"Mobile Technology","use":"To grow her mobile money business by serving more customers in her community who need financial services.   ","location":{"country_code":"ZM","country":"Zambia","town":"Chambeshi","geo":{"level":"country","pairs":"-15 30","type":"point"}},"partner_id":210,"posted_date":"2014-12-09T15:50:11Z","planned_expiration_date":"2015-01-23T15:50:11Z","loan_amount":800,"borrower_count":1,"lender_count":1,"bonus_credit_eligibility":false,"tags":[]},{"id":810917,"name":"Abadehemuka Group","description":{"languages":["en"]},"status":"fundraising","funded_amount":0,"basket_amount":0,"image":{"id":1751443,"template_id":1},"activity":"Food","sector":"Food","use":"To buy more sugar, rice and salt to sell.","location":{"country_code":"RW","country":"Rwanda","geo":{"level":"country","pairs":"-2 30","type":"point"}},"partner_id":161,"posted_date":"2014-12-09T15:50:03Z","planned_expiration_date":"2015-01-23T15:50:03Z","loan_amount":6175,"borrower_count":26,"lender_count":0,"bonus_credit_eligibility":true,"tags":[]},{"id":810922,"name":"Mark","description":{"languages":["en"]},"status":"fundraising","funded_amount":0,"basket_amount":0,"image":{"id":1646589,"template_id":1},"activity":"Services","sector":"Services","theme":"Mobile Technology","use":"to increase the money that he uses to serve customers on a daily basis, thus ensuring that he never has to turn away customers.","location":{"country_code":"ZM","country":"Zambia","town":"Lusaka","geo":{"level":"country","pairs":"-15 30","type":"point"}},"partner_id":210,"posted_date":"2014-12-09T15:50:03Z","planned_expiration_date":"2015-01-23T15:50:03Z","loan_amount":800,"borrower_count":1,"lender_count":0,"bonus_credit_eligibility":false,"tags":[]},{"id":810931,"name":"Lavura","description":{"languages":["en"]},"status":"fundraising","funded_amount":125,"basket_amount":0,"image":{"id":1751467,"template_id":1},"activity":"Personal Medical Expenses","sector":"Health","use":"to undergo treatment on her teeth to solve her dental problem.","location":{"country_code":"AM","country":"Armenia","town":"Yerevan","geo":{"level":"country","pairs":"40 45","type":"point"}},"partner_id":146,"posted_date":"2014-12-09T15:50:03Z","planned_expiration_date":"2015-01-23T15:50:03Z","loan_amount":575,"borrower_count":1,"lender_count":2,"bonus_credit_eligibility":true,"tags":[]},{"id":810953,"name":"Martin","description":{"languages":["en"]},"status":"fundraising","funded_amount":0,"basket_amount":0,"image":{"id":1751482,"template_id":1},"activity":"Motorcycle Transport","sector":"Transportation","use":"to buy another motorcycle","location":{"country_code":"KE","country":"Kenya","town":"karatina","geo":{"level":"country","pairs":"1 38","type":"point"}},"partner_id":138,"posted_date":"2014-12-09T15:50:03Z","planned_expiration_date":"2015-01-23T15:50:02Z","loan_amount":450,"borrower_count":1,"lender_count":0,"bonus_credit_eligibility":true,"tags":[]},{"id":804741,"name":"Las Triunfadoras Group","description":{"languages":["es","en"]},"status":"fundraising","funded_amount":0,"basket_amount":0,"image":{"id":1742619,"template_id":1},"activity":"Clothing Sales","sector":"Clothing","theme":"Conflict Zones","use":"to buy various types of clothes to sell.","location":{"country_code":"PY","country":"Paraguay","town":"Santan\u00ed","geo":{"level":"country","pairs":"-22.993333 -57.996389","type":"point"}},"partner_id":58,"posted_date":"2014-12-09T15:50:02Z","planned_expiration_date":"2015-01-23T15:50:01Z","loan_amount":5050,"borrower_count":20,"lender_count":0,"bonus_credit_eligibility":true,"tags":[]},{"id":810918,"name":"Marwa 1 Group","description":{"languages":["en"]},"status":"fundraising","funded_amount":0,"basket_amount":0,"image":{"id":1751445,"template_id":1},"activity":"Beauty Salon","sector":"Services","use":"to pay her children's school tuition fees and to buy necessary cosmetics.","location":{"country_code":"LB","country":"Lebanon","town":"Nabatieh","geo":{"level":"country","pairs":"33.833333 35.833333","type":"point"}},"partner_id":77,"posted_date":"2014-12-09T15:50:02Z","planned_expiration_date":"2015-01-23T15:50:02Z","loan_amount":2700,"borrower_count":3,"lender_count":0,"bonus_credit_eligibility":true,"tags":[]}]}